…
browse_standalone()
# # A tibble: 184 × 9
#    repo                   name                             path                               sha                 url   html_url git_url repo_url repo_description
#    <chr>                  <chr>                            <chr>                              <chr>               <chr> <chr>    <chr>   <chr>    <chr>           
#  1 tidymodels/parsnip     standalone-survival.R            R/standalone-survival.R            3f3809cc6019326a7f… http… https:/… https:… https:/… A tidy unified …
#  2 prioritizr/prioritizr  standalone-cli.R                 R/standalone-cli.R                 00453fe89a55497eba… http… https:/… https:… https:/… Systematic cons…
#  3 r-lib/rlang            standalone-vctrs.R               R/standalone-vctrs.R               a78927f6d65fd769c6… http… https:/… https:… https:/… Low-level API f…
#  4 cran/prioritizr        standalone-all_columns_inherit.R R/standalone-all_columns_inherit.R 2c08f0fdc2e3749b46… http… https:/… https:… https:/… :exclamation: T…
#  5 ai4ci/tidyabc          standalone-distributions.R       R/standalone-distributions.R       249a19d425c208db51… http… https:/… https:… https:/… R framework for…
#  6 terminological/ggrrr   standalone-empirical.R           R/standalone-empirical.R           4bcde2d56ddc24ae9d… http… https:/… https:… https:/… Data presentati…
#  7 WangLabCSU/SigBridgeR  standalone-get_var_value.R       R/standalone-get_var_value.R       6331dae57b7e759122… http… https:/… https:… https:/… SigBridgeR: Int…
#  8 willgearty/deeptime    standalone-obj-type.R            R/standalone-obj-type.R            106accce773ab162cd… http… https:/… https:… https:/… An R package th…
#  9 ddsjoberg/standalone   standalone-check_pkg_installed.R R/standalone-check_pkg_installed.R 571303b0f4e689ab4d… http… https:/… https:… https:/… Standalone scri…
# 10 elipousson/standaloner standalone-extra-checks.R        R/standalone-extra-checks.R        75bda8f557cfcae29e… http… https:/… https:… https:/… Set or get a to…
# # ℹ 174 more rows
```
…
